<?xml version="1.0"?>
<robot name = "ball_valve">
  <link name="base">
    <visual>
      <origin rpy="0 0 0" xyz="0 0 0"/>
      <geometry>
        <mesh filename="package://affordance_models/meshes/ball_valve_base.STL"/>
      </geometry>
    </visual>
  </link>
  <link name="valve">
    <visual>
      <origin rpy="0 0 0" xyz="0.0 0.0 0.0"/>
      <geometry>
        <mesh filename="package://affordance_models/meshes/ball_valve_handle.STL"/>
      </geometry>
    </visual>
  </link>
  <joint name="valve_joint" type="revolute">
    <axis xyz="0 0 1"/>
    <limit effort="1000.0" lower="0.0" upper="1.57" velocity="1.0"/>
    <origin rpy="0 0 0" xyz="0.0 0.0 -0.009"/>
    <parent link="base"/>
    <child link="valve"/>
  </joint>
</robot>
