<?xml version="1.0"?>
<robot name = "pvc_ball_valve">
  <link name="base">
    <visual>
      <origin rpy="0 0 0" xyz="0 0 0"/>
      <geometry>
        <mesh filename="package://affordance_models/meshes/pvc_ball_valve_base.STL"/>
      </geometry>
    </visual>
  </link>
  <link name="valve">
    <visual>
      <origin rpy="0 0 0" xyz="0 0 0"/>
      <geometry>
        <mesh filename="package://affordance_models/meshes/pvc_ball_valve_valve.STL"/>
      </geometry>
    </visual>
  </link>
  <joint name="valve_joint" type="revolute">
    <axis xyz="0 0 1"/>
    <limit effort="1000.0" lower="1.57" upper="3.14" velocity="1.0"/>
    <origin rpy="0 0 0" xyz="0.0 0.0 -0.002"/>
    <parent link="base"/>
    <child link="valve"/>
  </joint>
</robot>
